[
{"id":"1","category_name":"Online","category_description":"Online","sequence":"10","created_by":"1","deleted_at":null,"created_at":"2021-01-19 23:26:11","updated_at":"2021-01-28 15:06:42"},
{"id":"2","category_name":"Financial Accounting","category_description":"Financial Accounting","sequence":"20","created_by":"1","deleted_at":null,"created_at":"2021-01-19 23:26:11","updated_at":"2021-01-28 15:06:42"},
{"id":"3","category_name":"Economics","category_description":"Economics","sequence":"30","created_by":"1","deleted_at":null,"created_at":"2021-01-19 23:26:11","updated_at":"2021-01-28 15:06:42"},
{"id":"4","category_name":"Management Accounting","category_description":"Management Accounting","sequence":"40","created_by":"1","deleted_at":null,"created_at":"2021-01-19 23:26:11","updated_at":"2021-01-28 15:06:42"},
{"id":"5","category_name":"External Auditing","category_description":"External Auditing","sequence":"50","created_by":"1","deleted_at":null,"created_at":"2021-01-19 23:26:11","updated_at":"2021-01-28 15:06:42"},
{"id":"6","category_name":"Internal Auditing","category_description":"Internal Auditing","sequence":"60","created_by":"1","deleted_at":null,"created_at":"2021-01-19 23:26:11","updated_at":"2021-01-28 15:06:42"},
{"id":"7","category_name":"Taxation","category_description":"Taxation","sequence":"70","created_by":"1","deleted_at":null,"created_at":"2021-01-19 23:26:11","updated_at":"2021-01-28 15:06:42"},
{"id":"8","category_name":"Financial Management","category_description":"Financial Management","sequence":"80","created_by":"1","deleted_at":null,"created_at":"2021-01-26 12:16:04","updated_at":"2021-01-28 15:06:42"},
{"id":"9","category_name":"Business Management","category_description":"Business Management","sequence":"90","created_by":"1","deleted_at":null,"created_at":"2021-01-28 12:25:23","updated_at":"2021-01-28 15:06:42"},
{"id":"10","category_name":"Maths","category_description":"Maths","sequence":"100","created_by":"1","deleted_at":null,"created_at":"2021-01-28 12:25:23","updated_at":"2021-01-28 15:06:42"},
{"id":"11","category_name":"Stats","category_description":"Stats","sequence":"110","created_by":"1","deleted_at":null,"created_at":"2021-01-28 12:25:23","updated_at":"2021-01-28 15:06:42"},
{"id":"12","category_name":"Risk","category_description":"Risk","sequence":"120","created_by":"1","deleted_at":null,"created_at":"2021-01-28 12:25:23","updated_at":"2021-01-28 15:06:42"},
{"id":"13","category_name":"Law","category_description":"Law","sequence":"130","created_by":"1","deleted_at":null,"created_at":"2021-01-28 12:25:23","updated_at":"2021-01-28 15:06:42"},
{"id":"14","category_name":"Others","category_description":"Others","sequence":"150","created_by":"1","deleted_at":null,"created_at":"2021-01-28 15:06:42","updated_at":"2021-01-28 15:06:42"},
{"id":"15","category_name":"English","category_description":"English","sequence":"140","created_by":"1","deleted_at":null,"created_at":"2021-01-28 15:06:42","updated_at":"2021-01-28 15:06:42"},
{"id":"16","category_name":"High School","category_description":"High School","sequence":"160","created_by":"7","deleted_at":null,"created_at":"2021-04-14 10:21:48","updated_at":"2021-04-14 10:22:28"},
{"id":"17","category_name":"HR","category_description":"Human Resource","sequence":"145","created_by":"8","deleted_at":null,"created_at":"2021-06-01 15:26:43","updated_at":"2021-06-01 15:26:43"}
]

