[
{"id":"1","module_code":"ADL2601","description":"administrative law","category_id":"13","created_by":"1","deleted_at":null,"created_at":"2021-01-19 23:26:11","updated_at":"2021-01-29 10:36:33"},
{"id":"2","module_code":"AFL1501","description":"language through an african lens","category_id":"13","created_by":"1","deleted_at":null,"created_at":"2021-01-19 23:26:11","updated_at":"2021-01-29 10:36:33"},
{"id":"3","module_code":"AIN1501","description":"accounting information systems in a computer environment","category_id":"15","created_by":"1","deleted_at":null,"created_at":"2021-01-19 23:26:11","updated_at":"2021-01-29 10:36:33"},
{"id":"4","module_code":"AIN2601","description":"practical accounting data processing","category_id":"15","created_by":"1","deleted_at":null,"created_at":"2021-01-19 23:26:11","updated_at":"2021-01-29 10:36:33"},
{"id":"5","module_code":"AUE1501","description":"introduction to auditing","category_id":"5","created_by":"1","deleted_at":null,"created_at":"2021-01-19 23:26:11","updated_at":"2021-01-29 10:36:33"},
{"id":"6","module_code":"AUE1601","description":"legal aspects in accountancy","category_id":"5","created_by":"1","deleted_at":null,"created_at":"2021-01-19 23:26:11","updated_at":"2021-01-29 10:36:33"},
{"id":"7","module_code":"AUE2601","description":"auditing theory and practice","category_id":"5","created_by":"1","deleted_at":null,"created_at":"2021-01-19 23:26:11","updated_at":"2021-01-29 10:36:33"},
{"id":"8","module_code":"AUE2602","description":"corporate governance in accountancy","category_id":"5","created_by":"1","deleted_at":null,"created_at":"2021-01-26 12:16:54","updated_at":"2021-01-29 10:36:33"},
{"id":"9","module_code":"AUE3701","description":"audit planning and tests of controls","category_id":"5","created_by":"1","deleted_at":null,"created_at":"2021-01-26 12:17:51","updated_at":"2021-01-29 10:36:33"},
{"id":"10","module_code":"AUE3702","description":"substantive procedures and finalising an audit","category_id":"5","created_by":"1","deleted_at":null,"created_at":"2021-01-26 12:18:21","updated_at":"2021-01-29 10:36:33"},
{"id":"11","module_code":"AUE3761","description":"aue3701 & aue3702 Combined","category_id":"5","created_by":"1","deleted_at":null,"created_at":"2021-01-26 12:18:50","updated_at":"2021-01-29 10:36:33"},
{"id":"12","module_code":"AUI2601","description":"internal auditing: theory and principles","category_id":"6","created_by":"1","deleted_at":null,"created_at":"2021-01-26 12:19:45","updated_at":"2021-01-29 10:36:33"},
{"id":"13","module_code":"AUI3701","description":"the internal audit process: planning the engagement","category_id":"6","created_by":"1","deleted_at":null,"created_at":"2021-01-26 12:20:05","updated_at":"2021-01-29 10:36:33"},
{"id":"14","module_code":"AUI3702","description":"the internal audit process: test of controls","category_id":"6","created_by":"1","deleted_at":null,"created_at":"2021-01-26 12:20:31","updated_at":"2021-01-29 10:36:33"},
{"id":"15","module_code":"AUI3703","description":"the internal audit process: specific engagements and reporting","category_id":"6","created_by":"1","deleted_at":null,"created_at":"2021-01-26 12:21:05","updated_at":"2021-01-29 10:36:33"},
{"id":"16","module_code":"AUI3704","description":"managing the internal audit activity","category_id":"6","created_by":"1","deleted_at":null,"created_at":"2021-01-26 12:21:37","updated_at":"2021-01-29 10:36:33"},
{"id":"17","module_code":"BNU1501","description":"basic numeracy","category_id":"10","created_by":"1","deleted_at":null,"created_at":"2021-01-26 12:22:02","updated_at":"2021-01-29 10:36:33"},
{"id":"18","module_code":"BSM1501","description":"business management ia","category_id":"9","created_by":"1","deleted_at":null,"created_at":"2021-01-28 15:09:45","updated_at":"2021-01-29 10:36:33"},
{"id":"19","module_code":"BSM1602","description":"business management ib","category_id":"9","created_by":"1","deleted_at":null,"created_at":"2021-01-28 15:09:45","updated_at":"2021-01-29 10:36:33"},
{"id":"20","module_code":"CAS1501","description":"perspectives on accountancy","category_id":"1","created_by":"1","deleted_at":null,"created_at":"2021-01-28 15:09:45","updated_at":"2021-01-29 10:36:33"},
{"id":"21","module_code":"CBC1501","description":"communication in business contexts","category_id":"1","created_by":"1","deleted_at":null,"created_at":"2021-01-28 15:09:45","updated_at":"2021-01-29 10:36:33"},
{"id":"22","module_code":"CLA1501","description":"commercial law i a","category_id":"13","created_by":"1","deleted_at":null,"created_at":"2021-01-28 15:09:45","updated_at":"2021-01-29 10:36:33"},
{"id":"23","module_code":"CLA1503","description":"commercial law ic","category_id":"13","created_by":"1","deleted_at":null,"created_at":"2021-01-28 15:09:45","updated_at":"2021-01-29 10:36:33"},
{"id":"24","module_code":"CSL2601","description":"summary constitutional law","category_id":"13","created_by":"1","deleted_at":null,"created_at":"2021-01-28 15:09:45","updated_at":"2021-03-16 11:38:15"},
{"id":"25","module_code":"CMY1501","description":"introduction to criminology:crime,offenders and criminal behaviours","category_id":"13","created_by":"1","deleted_at":null,"created_at":"2021-01-28 15:09:45","updated_at":"2021-01-29 10:36:33"},
{"id":"26","module_code":"COM1502","description":"communication contexts and applications","category_id":"15","created_by":"1","deleted_at":null,"created_at":"2021-01-28 15:09:45","updated_at":"2021-01-29 10:36:33"},
{"id":"27","module_code":"COM2601","description":"organisational communication","category_id":"15","created_by":"1","deleted_at":null,"created_at":"2021-01-28 15:09:45","updated_at":"2021-01-29 10:36:33"},
{"id":"28","module_code":"CRW1501","description":"introduction to the general principles of criminal law","category_id":"13","created_by":"1","deleted_at":null,"created_at":"2021-01-28 15:09:45","updated_at":"2021-01-29 10:36:33"},
{"id":"29","module_code":"CRW2601","description":"general principals of criminal law","category_id":"13","created_by":"1","deleted_at":null,"created_at":"2021-01-28 15:09:45","updated_at":"2021-01-29 10:36:33"},
{"id":"30","module_code":"CRW2602","description":"criminal law: specific crimes","category_id":"13","created_by":"1","deleted_at":null,"created_at":"2021-01-28 15:09:45","updated_at":"2021-01-29 10:36:33"},
{"id":"31","module_code":"DSC1520","description":"quantitative modelling i","category_id":"10","created_by":"1","deleted_at":null,"created_at":"2021-01-28 15:09:45","updated_at":"2021-01-29 10:36:33"},
{"id":"32","module_code":"DSC1630","description":"introductory financial mathematics","category_id":"10","created_by":"1","deleted_at":null,"created_at":"2021-01-28 15:09:45","updated_at":"2021-01-29 10:36:33"},
{"id":"33","module_code":"ECS1500","description":"economics","category_id":"3","created_by":"1","deleted_at":null,"created_at":"2021-01-28 15:09:45","updated_at":"2021-01-29 10:36:33"},
{"id":"34","module_code":"ECS1501","description":"economics 1a","category_id":"3","created_by":"1","deleted_at":null,"created_at":"2021-01-28 15:09:45","updated_at":"2021-01-29 10:36:33"},
{"id":"35","module_code":"ECS1601","description":"economics 1b","category_id":"3","created_by":"1","deleted_at":null,"created_at":"2021-01-28 15:09:45","updated_at":"2021-01-29 10:36:33"},
{"id":"36","module_code":"ECS2601","description":"microeconomics","category_id":"3","created_by":"1","deleted_at":null,"created_at":"2021-01-28 15:09:45","updated_at":"2021-01-29 10:36:33"},
{"id":"37","module_code":"ECS2602","description":"macroeconomics","category_id":"3","created_by":"1","deleted_at":null,"created_at":"2021-01-28 15:09:45","updated_at":"2021-01-29 10:36:33"},
{"id":"38","module_code":"ECS2605","description":"south african financial system","category_id":"3","created_by":"1","deleted_at":null,"created_at":"2021-01-28 15:09:45","updated_at":"2021-01-29 10:36:33"},
{"id":"39","module_code":"ENG1501","description":"foundations in english literary studies","category_id":"14","created_by":"1","deleted_at":null,"created_at":"2021-01-28 15:09:45","updated_at":"2021-01-29 10:36:33"},
{"id":"40","module_code":"ENG1503","description":"Academic Language and Literacy in English","category_id":"14","created_by":"1","deleted_at":null,"created_at":"2021-01-28 15:09:45","updated_at":"2021-01-29 10:36:33"},
{"id":"41","module_code":"ENG1512","description":"#N\/A","category_id":"14","created_by":"1","deleted_at":null,"created_at":"2021-01-28 15:09:45","updated_at":"2021-01-29 10:36:33"},
{"id":"42","module_code":"ENN1504","description":"practising workplace english","category_id":"14","created_by":"1","deleted_at":null,"created_at":"2021-01-28 15:09:45","updated_at":"2021-01-29 10:36:33"},
{"id":"43","module_code":"EUP1501","description":"ethical information and communication technologies for development solutions","category_id":"1","created_by":"1","deleted_at":null,"created_at":"2021-01-28 15:09:45","updated_at":"2021-01-29 10:36:33"},
{"id":"44","module_code":"FAC1501","description":"basic accounting","category_id":"2","created_by":"1","deleted_at":null,"created_at":"2021-01-28 15:09:45","updated_at":"2021-01-29 10:36:33"},
{"id":"45","module_code":"FAC1502","description":"financial accounting principles, concepts and procedures","category_id":"2","created_by":"1","deleted_at":null,"created_at":"2021-01-28 15:09:45","updated_at":"2021-01-29 10:36:33"},
{"id":"46","module_code":"FAC1503","description":"financial accounting principles for law practitioners","category_id":"2","created_by":"1","deleted_at":null,"created_at":"2021-01-28 15:09:45","updated_at":"2021-01-29 10:36:33"},
{"id":"47","module_code":"FAC1601","description":"financial accounting reporting","category_id":"2","created_by":"1","deleted_at":null,"created_at":"2021-01-28 15:09:45","updated_at":"2021-01-29 10:36:33"},
{"id":"48","module_code":"FAC1602","description":"elementary financial accounting and reporting","category_id":"2","created_by":"1","deleted_at":null,"created_at":"2021-01-28 15:09:45","updated_at":"2021-01-29 10:36:33"},
{"id":"49","module_code":"FAC2601","description":"financial accounting for companies","category_id":"2","created_by":"1","deleted_at":null,"created_at":"2021-01-28 15:09:45","updated_at":"2021-01-29 10:36:33"},
{"id":"50","module_code":"FAC2602","description":"selected accounting standards and simple group structures","category_id":"2","created_by":"1","deleted_at":null,"created_at":"2021-01-28 15:09:45","updated_at":"2021-01-29 10:36:33"},
{"id":"51","module_code":"FAC3701","description":"general financial reporting","category_id":"2","created_by":"1","deleted_at":null,"created_at":"2021-01-28 15:09:45","updated_at":"2021-01-29 10:36:33"},
{"id":"52","module_code":"FAC3702","description":"distinctive financial reporting","category_id":"2","created_by":"1","deleted_at":null,"created_at":"2021-01-28 15:09:45","updated_at":"2021-01-29 10:36:33"},
{"id":"53","module_code":"FAC3703","description":"specific financial reporting","category_id":"2","created_by":"1","deleted_at":null,"created_at":"2021-01-28 15:09:45","updated_at":"2021-01-29 10:36:33"},
{"id":"54","module_code":"FAC3704","description":"group financial reporting","category_id":"2","created_by":"1","deleted_at":null,"created_at":"2021-01-28 15:09:45","updated_at":"2021-01-29 10:36:33"},
{"id":"55","module_code":"FAC3761","description":"fac3701 & fac3702 Combined","category_id":"2","created_by":"1","deleted_at":null,"created_at":"2021-01-28 15:09:45","updated_at":"2021-01-29 10:36:33"},
{"id":"56","module_code":"FAC3762","description":"fac3703 & fac3704 Combined","category_id":"2","created_by":"1","deleted_at":null,"created_at":"2021-01-28 15:09:45","updated_at":"2021-01-29 10:36:33"},
{"id":"57","module_code":"FIN2601","description":"financial management","category_id":"8","created_by":"1","deleted_at":null,"created_at":"2021-01-28 15:09:45","updated_at":"2021-03-05 13:52:55"},
{"id":"58","module_code":"FIN2602","description":"personal financial management","category_id":"8","created_by":"1","deleted_at":null,"created_at":"2021-01-28 15:09:45","updated_at":"2021-01-29 10:36:33"},
{"id":"59","module_code":"FIN2603","description":"finance for non-financial managers","category_id":"1","created_by":"1","deleted_at":null,"created_at":"2021-01-28 15:09:45","updated_at":"2021-01-29 10:36:33"},
{"id":"60","module_code":"FIN3701","description":"financial management","category_id":"8","created_by":"1","deleted_at":null,"created_at":"2021-01-28 15:09:45","updated_at":"2021-01-29 10:36:33"},
{"id":"61","module_code":"FUR2601","description":"fundamental rights","category_id":"13","created_by":"1","deleted_at":null,"created_at":"2021-01-28 15:09:45","updated_at":"2021-01-29 10:36:33"},
{"id":"62","module_code":"HFL1501","description":"historical foundations of south african law","category_id":"13","created_by":"1","deleted_at":null,"created_at":"2021-01-28 15:09:45","updated_at":"2021-01-29 10:36:33"},
{"id":"63","module_code":"HRM1501","description":"introduction to human resource management","category_id":"1","created_by":"1","deleted_at":null,"created_at":"2021-01-28 15:09:45","updated_at":"2021-01-29 10:36:33"},
{"id":"64","module_code":"HRM2601","description":"human resource provisioning","category_id":"1","created_by":"1","deleted_at":null,"created_at":"2021-01-28 15:09:45","updated_at":"2021-01-29 10:36:33"},
{"id":"65","module_code":"IND2601","description":"customary law","category_id":"13","created_by":"1","deleted_at":null,"created_at":"2021-01-28 15:09:45","updated_at":"2021-01-29 10:36:33"},
{"id":"66","module_code":"INF1505","description":"introduction to business information systems","category_id":"1","created_by":"1","deleted_at":null,"created_at":"2021-01-28 15:09:45","updated_at":"2021-01-29 10:36:33"},
{"id":"67","module_code":"INV2601","description":"investments: an introduction","category_id":"1","created_by":"1","deleted_at":null,"created_at":"2021-01-28 15:09:45","updated_at":"2021-01-29 10:36:33"},
{"id":"68","module_code":"IOP1501","description":"psychological processes in work context","category_id":"1","created_by":"1","deleted_at":null,"created_at":"2021-01-28 15:09:45","updated_at":"2021-01-29 10:36:33"},
{"id":"69","module_code":"IOP1601","description":"Personality in Work Context","category_id":"1","created_by":"1","deleted_at":null,"created_at":"2021-01-28 15:09:45","updated_at":"2021-01-29 10:36:33"},
{"id":"70","module_code":"IOP2601","description":"organisational research methodology","category_id":"11","created_by":"1","deleted_at":null,"created_at":"2021-01-28 15:09:45","updated_at":"2021-01-29 10:36:33"},
{"id":"71","module_code":"IOS2601","description":"interpretation of statutes","category_id":"13","created_by":"1","deleted_at":null,"created_at":"2021-01-28 15:09:45","updated_at":"2021-01-29 10:36:33"},
{"id":"72","module_code":"IRM1501","description":"introduction to research methodology for law and criminal justice","category_id":"13","created_by":"1","deleted_at":null,"created_at":"2021-01-28 15:09:45","updated_at":"2021-01-29 10:36:33"},
{"id":"73","module_code":"LIN1502","description":"multilingualism: the role of language in the south african context","category_id":"13","created_by":"1","deleted_at":null,"created_at":"2021-01-28 15:09:45","updated_at":"2021-01-29 10:36:33"},
{"id":"74","module_code":"MAC1501","description":"introduction to management accounting","category_id":"4","created_by":"1","deleted_at":null,"created_at":"2021-01-28 15:09:45","updated_at":"2021-01-29 10:36:33"},
{"id":"75","module_code":"MAC2601","description":"principles of management accounting","category_id":"4","created_by":"1","deleted_at":null,"created_at":"2021-01-28 15:09:45","updated_at":"2021-01-29 10:36:33"},
{"id":"76","module_code":"MAC2602","description":"principles of strategy, risk & financial management techniques","category_id":"4","created_by":"1","deleted_at":null,"created_at":"2021-01-28 15:09:45","updated_at":"2021-01-29 10:36:33"},
{"id":"77","module_code":"MAC3701","description":"application of management accounting techniques","category_id":"4","created_by":"1","deleted_at":null,"created_at":"2021-01-28 15:09:45","updated_at":"2021-01-29 10:36:33"},
{"id":"78","module_code":"MAC3702","description":"application of financial management techniques","category_id":"4","created_by":"1","deleted_at":null,"created_at":"2021-01-28 15:09:45","updated_at":"2021-01-29 10:36:33"},
{"id":"79","module_code":"MAC3761","description":"Management Accounting","category_id":"4","created_by":"1","deleted_at":null,"created_at":"2021-01-28 15:09:45","updated_at":"2021-01-29 10:36:33"},
{"id":"80","module_code":"MNB1501","description":"business management ia","category_id":"9","created_by":"1","deleted_at":null,"created_at":"2021-01-28 15:09:45","updated_at":"2021-01-29 10:36:33"},
{"id":"81","module_code":"MNB1601","description":"business management ib","category_id":"9","created_by":"1","deleted_at":null,"created_at":"2021-01-28 15:09:45","updated_at":"2021-01-29 10:36:33"},
{"id":"82","module_code":"MNB2601","description":"business management","category_id":"9","created_by":"1","deleted_at":null,"created_at":"2021-01-28 15:09:45","updated_at":"2021-01-29 10:36:33"},
{"id":"83","module_code":"MNE2601","description":"introduction to entrepreneurship and small business management","category_id":"15","created_by":"1","deleted_at":null,"created_at":"2021-01-28 15:09:45","updated_at":"2021-01-29 10:36:33"},
{"id":"84","module_code":"MNG1502","description":"management ia","category_id":"9","created_by":"1","deleted_at":null,"created_at":"2021-01-28 15:09:45","updated_at":"2021-01-29 10:36:33"},
{"id":"85","module_code":"MNG2601","description":"general management","category_id":"1","created_by":"1","deleted_at":null,"created_at":"2021-01-28 15:09:45","updated_at":"2021-01-29 10:36:33"},
{"id":"86","module_code":"MNG2602","description":"contemporary management issues","category_id":"9","created_by":"1","deleted_at":null,"created_at":"2021-01-28 15:09:45","updated_at":"2021-01-29 10:36:33"},
{"id":"87","module_code":"MNG3701","description":"strategic planning iiia","category_id":"9","created_by":"1","deleted_at":null,"created_at":"2021-01-28 15:09:45","updated_at":"2021-01-29 10:36:33"},
{"id":"88","module_code":"MNG3702","description":"strategic implementation and control iii b","category_id":"9","created_by":"1","deleted_at":null,"created_at":"2021-01-28 15:09:45","updated_at":"2021-01-29 10:36:33"},
{"id":"89","module_code":"MNM1503","description":"introduction to marketing","category_id":"15","created_by":"1","deleted_at":null,"created_at":"2021-01-28 15:09:45","updated_at":"2021-01-29 10:36:33"},
{"id":"90","module_code":"MNM1520","description":"fundamentals of public relations","category_id":"15","created_by":"1","deleted_at":null,"created_at":"2021-01-28 15:09:45","updated_at":"2021-01-29 10:36:33"},
{"id":"91","module_code":"MNM1522","description":"fundamentals of branding","category_id":"15","created_by":"1","deleted_at":null,"created_at":"2021-01-28 15:09:45","updated_at":"2021-01-29 10:36:33"},
{"id":"92","module_code":"MNM1601","description":"principles of marketing management","category_id":"15","created_by":"1","deleted_at":null,"created_at":"2021-01-28 15:09:45","updated_at":"2021-01-29 10:36:33"},
{"id":"93","module_code":"MNM2604","description":"industrial marketing management","category_id":"15","created_by":"1","deleted_at":null,"created_at":"2021-01-28 15:09:45","updated_at":"2021-01-29 10:36:33"},
{"id":"94","module_code":"MNM2614","description":"#N\/A","category_id":"15","created_by":"1","deleted_at":null,"created_at":"2021-01-28 15:09:45","updated_at":"2021-01-29 10:36:33"},
{"id":"95","module_code":"MNO2601","description":"production and operations management","category_id":"15","created_by":"1","deleted_at":null,"created_at":"2021-01-28 15:09:45","updated_at":"2021-01-29 10:36:33"},
{"id":"96","module_code":"MRL2601","description":"entrepreneural law","category_id":"13","created_by":"1","deleted_at":null,"created_at":"2021-01-28 15:09:45","updated_at":"2021-01-29 10:36:33"},
{"id":"97","module_code":"PLS1502","description":"introduction to african philosophy?","category_id":"13","created_by":"1","deleted_at":null,"created_at":"2021-01-28 15:09:45","updated_at":"2021-01-29 10:36:33"},
{"id":"98","module_code":"PVL1501","description":"law of persons","category_id":"13","created_by":"1","deleted_at":null,"created_at":"2021-01-28 15:09:45","updated_at":"2021-01-29 10:36:33"},
{"id":"99","module_code":"PVL2601","description":"family law","category_id":"13","created_by":"1","deleted_at":null,"created_at":"2021-01-28 15:09:45","updated_at":"2021-01-29 10:36:33"},
{"id":"100","module_code":"PVL2602","description":"law of succession","category_id":"13","created_by":"1","deleted_at":null,"created_at":"2021-01-28 15:09:45","updated_at":"2021-01-29 10:36:33"},
{"id":"101","module_code":"PVL3701","description":"law of property","category_id":"13","created_by":"1","deleted_at":null,"created_at":"2021-01-28 15:09:45","updated_at":"2021-01-29 10:36:33"},
{"id":"102","module_code":"QMI1500","description":"elementary quantitative methods","category_id":"10","created_by":"1","deleted_at":null,"created_at":"2021-01-28 15:09:45","updated_at":"2021-01-29 10:36:33"},
{"id":"103","module_code":"RSK2601","description":"enterprise risk management","category_id":"12","created_by":"1","deleted_at":null,"created_at":"2021-01-28 15:09:45","updated_at":"2021-01-29 10:36:33"},
{"id":"104","module_code":"SCL1501","description":"skills course for law students","category_id":"13","created_by":"1","deleted_at":null,"created_at":"2021-01-28 15:09:45","updated_at":"2021-01-29 10:36:33"},
{"id":"105","module_code":"SJD1501","description":"social dimensions of justice","category_id":"1","created_by":"1","deleted_at":null,"created_at":"2021-01-28 15:09:45","updated_at":"2021-01-29 10:36:33"},
{"id":"106","module_code":"STA1501","description":"descriptive statistics and probability","category_id":"11","created_by":"1","deleted_at":null,"created_at":"2021-01-28 15:09:45","updated_at":"2021-01-29 10:36:33"},
{"id":"107","module_code":"STA1510","description":"basic statistics","category_id":"11","created_by":"1","deleted_at":null,"created_at":"2021-01-28 15:09:45","updated_at":"2021-01-29 10:36:33"},
{"id":"108","module_code":"STA1610","description":"introduction to statistics","category_id":"11","created_by":"1","deleted_at":null,"created_at":"2021-01-28 15:09:45","updated_at":"2021-01-29 10:36:33"},
{"id":"109","module_code":"SUS1501","description":"sustainability and greed","category_id":"1","created_by":"1","deleted_at":null,"created_at":"2021-01-28 15:09:45","updated_at":"2021-01-29 10:36:33"},
{"id":"110","module_code":"TAX1501","description":"taxation of salaried persons","category_id":"7","created_by":"1","deleted_at":null,"created_at":"2021-01-28 15:09:45","updated_at":"2021-01-29 10:36:33"},
{"id":"111","module_code":"TAX2601","description":"principles of taxation","category_id":"7","created_by":"1","deleted_at":null,"created_at":"2021-01-28 15:09:45","updated_at":"2021-01-29 10:36:33"},
{"id":"112","module_code":"TAX3701","description":"taxation of business activities","category_id":"7","created_by":"1","deleted_at":null,"created_at":"2021-01-28 15:09:45","updated_at":"2021-01-29 10:36:33"},
{"id":"113","module_code":"TAX3702","description":"taxation of individuals","category_id":"7","created_by":"1","deleted_at":null,"created_at":"2021-01-28 15:09:45","updated_at":"2021-01-29 10:36:33"},
{"id":"114","module_code":"TAX3703","description":"taxation of estates","category_id":"7","created_by":"1","deleted_at":null,"created_at":"2021-01-28 15:09:45","updated_at":"2021-01-29 10:36:33"},
{"id":"115","module_code":"TAX3704","description":"tax administration","category_id":"7","created_by":"1","deleted_at":null,"created_at":"2021-01-28 15:09:45","updated_at":"2021-01-29 10:36:33"},
{"id":"116","module_code":"TAX3705","description":"tax opinion writing","category_id":"7","created_by":"1","deleted_at":null,"created_at":"2021-01-28 15:09:45","updated_at":"2021-01-29 10:36:33"},
{"id":"117","module_code":"TAX3761","description":"Taxation of business activities and Individuals","category_id":"7","created_by":"1","deleted_at":null,"created_at":"2021-01-28 15:09:45","updated_at":"2021-01-29 10:36:33"},
{"id":"118","module_code":"MNG1601","description":"General Management","category_id":"9","created_by":"1","deleted_at":null,"created_at":"2021-03-02 10:34:04","updated_at":"2021-03-02 10:34:04"},
{"id":"119","module_code":"IOP1503","description":" Environmental Psychology","category_id":"14","created_by":"1","deleted_at":null,"created_at":"2021-03-02 11:47:32","updated_at":"2021-03-02 11:47:32"},
{"id":"120","module_code":"IOP1504","description":" Workforce Diversity","category_id":"14","created_by":"1","deleted_at":null,"created_at":"2021-03-02 11:48:11","updated_at":"2021-03-02 11:48:11"},
{"id":"121","module_code":"BSM3702","description":" Business Management Iiib","category_id":"9","created_by":"1","deleted_at":null,"created_at":"2021-03-05 13:52:29","updated_at":"2021-03-05 13:52:29"},
{"id":"122","module_code":"MNM2611","description":"Integrated Marketing Communication","category_id":"14","created_by":"1","deleted_at":null,"created_at":"2021-03-10 10:54:59","updated_at":"2021-03-10 10:54:59"},
{"id":"123","module_code":"MNM2615","description":"Marketing In Africa","category_id":"14","created_by":"1","deleted_at":null,"created_at":"2021-03-10 10:57:05","updated_at":"2021-03-10 10:57:05"},
{"id":"124","module_code":"MNM2613","description":"Value Chain Marketing","category_id":"14","created_by":"1","deleted_at":null,"created_at":"2021-03-10 10:58:09","updated_at":"2021-03-10 10:58:09"},
{"id":"125","module_code":"BSM3701","description":"Business Managment iiiA","category_id":"9","created_by":"1","deleted_at":null,"created_at":"2021-03-11 14:12:55","updated_at":"2021-03-12 06:06:56"},
{"id":"126","module_code":"ILW1501","description":"Introduction To Law","category_id":"13","created_by":"1","deleted_at":null,"created_at":"2021-03-11 20:43:56","updated_at":"2021-03-11 20:43:56"},
{"id":"127","module_code":"STA1502","description":"Statistic","category_id":"11","created_by":"1","deleted_at":null,"created_at":"2021-03-11 20:49:14","updated_at":"2021-03-11 20:49:14"},
{"id":"128","module_code":"MAT1510","description":"Mathematics","category_id":"10","created_by":"1","deleted_at":null,"created_at":"2021-03-11 20:51:51","updated_at":"2021-03-11 20:51:51"},
{"id":"129","module_code":"MNO2602","description":"Operation Management","category_id":"14","created_by":"1","deleted_at":null,"created_at":"2021-03-16 11:30:56","updated_at":"2021-03-16 11:51:29"},
{"id":"130","module_code":"MRL3702","description":"Labor Law","category_id":"13","created_by":"1","deleted_at":null,"created_at":"2021-03-16 11:47:12","updated_at":"2021-03-16 11:47:12"},
{"id":"131","module_code":"CIV3701","description":"Civil Procedure","category_id":"13","created_by":"1","deleted_at":null,"created_at":"2021-03-16 11:48:02","updated_at":"2021-03-16 11:48:02"},
{"id":"132","module_code":"MNO2603","description":"Safety Management IIa","category_id":"14","created_by":"1","deleted_at":null,"created_at":"2021-03-26 11:24:42","updated_at":"2021-03-26 11:31:27"},
{"id":"133","module_code":"MNM3701","description":"Marketing Planning","category_id":"14","created_by":"1","deleted_at":null,"created_at":"2021-03-31 15:49:34","updated_at":"2021-03-31 15:49:34"},
{"id":"134","module_code":"MNO2604","description":"Work Study","category_id":"14","created_by":"1","deleted_at":null,"created_at":"2021-03-31 15:54:16","updated_at":"2021-03-31 15:54:16"},
{"id":"135","module_code":"MNO3704","description":"Environmental Management","category_id":"14","created_by":"1","deleted_at":null,"created_at":"2021-03-31 15:56:59","updated_at":"2021-03-31 15:56:59"},
{"id":"136","module_code":"IOP2602","description":"Organisational Psychology","category_id":"1","created_by":"1","deleted_at":null,"created_at":"2021-04-08 12:10:34","updated_at":"2021-04-08 12:10:34"},
{"id":"137","module_code":"IAD3702","description":"Information Administration Iii (Practical)","category_id":"1","created_by":"1","deleted_at":null,"created_at":"2021-04-08 15:08:53","updated_at":"2021-04-08 15:08:53"},
{"id":"138","module_code":"BSM2601","description":"Business Management","category_id":"9","created_by":"1","deleted_at":null,"created_at":"2021-04-08 20:36:55","updated_at":"2021-04-08 20:36:55"},
{"id":"139","module_code":"ENG1502","description":"Foundation In English Language Studies","category_id":"14","created_by":"1","deleted_at":null,"created_at":"2021-04-10 09:46:57","updated_at":"2021-04-10 09:46:57"},
{"id":"140","module_code":"LLW2601","description":"Individual Labour Law","category_id":"13","created_by":"1","deleted_at":null,"created_at":"2021-04-10 10:22:00","updated_at":"2021-04-10 10:22:00"},
{"id":"141","module_code":"MATLT09","description":"Maths Literature Grade 09","category_id":"10","created_by":"1","deleted_at":null,"created_at":"2021-04-13 15:59:14","updated_at":"2021-04-13 15:59:14"},
{"id":"142","module_code":"MATPR09","description":"Pure Maths Grade 09","category_id":"10","created_by":"1","deleted_at":null,"created_at":"2021-04-13 16:04:34","updated_at":"2021-04-13 16:04:34"},
{"id":"143","module_code":"ENGHL09","description":"English Home grade 09","category_id":"15","created_by":"1","deleted_at":null,"created_at":"2021-04-13 16:06:10","updated_at":"2021-04-13 17:40:13"},
{"id":"144","module_code":"ENGFL09","description":"English Fal grade 09","category_id":"15","created_by":"1","deleted_at":null,"created_at":"2021-04-13 16:06:39","updated_at":"2021-04-13 17:40:33"},
{"id":"145","module_code":"BSMNG09","description":"Business Studies 09","category_id":"9","created_by":"1","deleted_at":null,"created_at":"2021-04-13 16:07:27","updated_at":"2021-04-13 17:40:58"},
{"id":"146","module_code":"ECOSS09","description":"Economics grade 09","category_id":"3","created_by":"1","deleted_at":null,"created_at":"2021-04-13 16:08:04","updated_at":"2021-04-13 17:40:46"},
{"id":"147","module_code":"HISTY09","description":"History grade 09","category_id":"14","created_by":"1","deleted_at":null,"created_at":"2021-04-13 16:08:45","updated_at":"2021-04-13 17:41:10"},
{"id":"148","module_code":"ACCNT09","description":"Accouting grade 09","category_id":"2","created_by":"1","deleted_at":null,"created_at":"2021-04-13 16:09:44","updated_at":"2021-04-13 17:41:21"},
{"id":"149","module_code":"SCILF09","description":"Life Science grade 09","category_id":"14","created_by":"1","deleted_at":null,"created_at":"2021-04-13 16:10:59","updated_at":"2021-04-13 17:41:32"},
{"id":"150","module_code":"SCIPY09","description":"Physical Science grade 09","category_id":"14","created_by":"1","deleted_at":null,"created_at":"2021-04-13 16:11:17","updated_at":"2021-04-13 17:41:44"},
{"id":"151","module_code":"MATLT10","description":"Maths Literature Grade 10","category_id":"10","created_by":"1","deleted_at":null,"created_at":"2021-04-13 16:21:01","updated_at":"2021-04-13 16:21:13"},
{"id":"152","module_code":"MATPR10","description":"Pure Maths Grade 10","category_id":"10","created_by":"1","deleted_at":null,"created_at":"2021-04-13 17:42:49","updated_at":"2021-04-13 17:42:49"},
{"id":"153","module_code":"ENGHL10","description":"English Home Grade 10","category_id":"15","created_by":"1","deleted_at":null,"created_at":"2021-04-13 17:43:18","updated_at":"2021-04-13 17:43:18"},
{"id":"154","module_code":"ENGFL10","description":"English Fal Grade 10","category_id":"15","created_by":"1","deleted_at":null,"created_at":"2021-04-13 17:43:47","updated_at":"2021-04-13 17:43:47"},
{"id":"155","module_code":"BSMNG10","description":"Business Studies Grade 10","category_id":"9","created_by":"1","deleted_at":null,"created_at":"2021-04-13 17:44:27","updated_at":"2021-04-13 17:44:27"},
{"id":"156","module_code":"ECOSS10","description":"Economics Grade 10","category_id":"3","created_by":"1","deleted_at":null,"created_at":"2021-04-13 17:44:46","updated_at":"2021-04-13 17:44:46"},
{"id":"157","module_code":"HISTY10","description":"History Grade 10","category_id":"14","created_by":"1","deleted_at":null,"created_at":"2021-04-13 17:45:13","updated_at":"2021-04-13 17:45:13"},
{"id":"158","module_code":"ACCNT10","description":"Accouting Grade 10","category_id":"2","created_by":"1","deleted_at":null,"created_at":"2021-04-13 17:46:00","updated_at":"2021-04-13 17:46:00"},
{"id":"159","module_code":"SCILF10","description":"Life Science Grade 10","category_id":"14","created_by":"1","deleted_at":null,"created_at":"2021-04-13 17:46:26","updated_at":"2021-04-13 17:46:26"},
{"id":"160","module_code":"SCIPY10","description":"Physical Science Grade 10","category_id":"14","created_by":"1","deleted_at":null,"created_at":"2021-04-13 17:46:58","updated_at":"2021-04-13 17:46:58"},
{"id":"161","module_code":"MATLT11","description":"Maths Literature Grade 11","category_id":"10","created_by":"1","deleted_at":null,"created_at":"2021-04-13 18:04:45","updated_at":"2021-04-13 18:04:45"},
{"id":"162","module_code":"MATPR11","description":"Pure Maths Grade 11","category_id":"10","created_by":"1","deleted_at":null,"created_at":"2021-04-13 18:05:17","updated_at":"2021-04-13 18:05:17"},
{"id":"163","module_code":"ENGHL11","description":"English Home Grade 11","category_id":"15","created_by":"1","deleted_at":null,"created_at":"2021-04-13 18:05:41","updated_at":"2021-04-13 18:05:41"},
{"id":"164","module_code":"BSMNG11","description":"Business Studies Grade 11","category_id":"9","created_by":"1","deleted_at":null,"created_at":"2021-04-13 18:06:11","updated_at":"2021-04-13 18:06:11"},
{"id":"165","module_code":"ECOSS11","description":"Economics Grade 11","category_id":"3","created_by":"1","deleted_at":null,"created_at":"2021-04-13 18:07:04","updated_at":"2021-04-13 18:07:04"},
{"id":"166","module_code":"HISTY11","description":"History Grade 11","category_id":"14","created_by":"1","deleted_at":null,"created_at":"2021-04-13 18:07:38","updated_at":"2021-04-13 18:07:38"},
{"id":"167","module_code":"ACCNT11","description":"Accouting Grade 11","category_id":"2","created_by":"1","deleted_at":null,"created_at":"2021-04-13 18:08:03","updated_at":"2021-04-13 18:08:03"},
{"id":"168","module_code":"SCILF11","description":"Life Science Grade 11","category_id":"14","created_by":"1","deleted_at":null,"created_at":"2021-04-13 18:08:44","updated_at":"2021-04-13 18:08:44"},
{"id":"169","module_code":"SCIPY11","description":"Physical Science Grade 11","category_id":"14","created_by":"1","deleted_at":null,"created_at":"2021-04-13 18:09:14","updated_at":"2021-04-13 18:09:14"},
{"id":"170","module_code":"MATLT12","description":"Maths Literature Grade 12","category_id":"10","created_by":"1","deleted_at":null,"created_at":"2021-04-13 18:22:21","updated_at":"2021-04-13 18:22:21"},
{"id":"171","module_code":"MATPR12","description":"Pure Maths Grade 12","category_id":"10","created_by":"1","deleted_at":null,"created_at":"2021-04-13 18:22:51","updated_at":"2021-04-13 18:22:51"},
{"id":"172","module_code":"ENGHL12","description":"English Home Grade 12","category_id":"15","created_by":"1","deleted_at":null,"created_at":"2021-04-13 18:23:16","updated_at":"2021-04-13 18:23:16"},
{"id":"173","module_code":"ENGFL12","description":"English Fal Grade 12","category_id":"15","created_by":"1","deleted_at":null,"created_at":"2021-04-13 18:23:42","updated_at":"2021-04-13 18:23:42"},
{"id":"174","module_code":"BSMNG12","description":"Bsmng12","category_id":"9","created_by":"1","deleted_at":null,"created_at":"2021-04-13 18:24:11","updated_at":"2021-04-13 18:24:11"},
{"id":"175","module_code":"ECOSS12","description":"Economics Grade 12","category_id":"3","created_by":"1","deleted_at":null,"created_at":"2021-04-13 18:24:40","updated_at":"2021-04-13 18:24:40"},
{"id":"176","module_code":"HISTY12","description":"History Grade 12","category_id":"14","created_by":"1","deleted_at":null,"created_at":"2021-04-13 18:25:07","updated_at":"2021-04-13 18:25:07"},
{"id":"177","module_code":"ACCNT12","description":"Accouting Grade 12","category_id":"2","created_by":"1","deleted_at":null,"created_at":"2021-04-13 18:25:47","updated_at":"2021-04-13 18:25:47"},
{"id":"178","module_code":"SCILF12","description":"Life Science Grade 12","category_id":"14","created_by":"1","deleted_at":null,"created_at":"2021-04-13 18:26:30","updated_at":"2021-04-13 18:26:30"},
{"id":"179","module_code":"SCIPY12","description":"Physical Science Grade 12","category_id":"14","created_by":"1","deleted_at":null,"created_at":"2021-04-13 18:26:55","updated_at":"2021-04-13 18:26:55"},
{"id":"180","module_code":"FAC4861","description":"Advanced Finanancial Accounting I","category_id":"2","created_by":"1","deleted_at":null,"created_at":"2021-04-14 10:24:15","updated_at":"2021-04-14 19:42:41"},
{"id":"181","module_code":"ETP2601","description":"Entrepreneurial Skills","category_id":"14","created_by":"1","deleted_at":null,"created_at":"2021-04-14 10:27:41","updated_at":"2021-04-14 10:27:41"},
{"id":"182","module_code":"MNE1501","description":"Introduction To Entrepreneurship And Small Business Management","category_id":"14","created_by":"1","deleted_at":null,"created_at":"2021-04-14 10:28:45","updated_at":"2021-04-14 10:28:45"},
{"id":"183","module_code":"FAC4862","description":"Advanced Financial Accounting Ii","category_id":"2","created_by":"1","deleted_at":null,"created_at":"2021-04-14 19:43:42","updated_at":"2021-04-14 19:43:42"},
{"id":"184","module_code":"FAC4863","description":"Applied Financial Accounting I","category_id":"2","created_by":"1","deleted_at":null,"created_at":"2021-04-14 19:44:38","updated_at":"2021-04-14 19:44:38"},
{"id":"185","module_code":"FAC4864","description":"Applied Financial Accounting Ii","category_id":"2","created_by":"1","deleted_at":null,"created_at":"2021-04-14 19:45:58","updated_at":"2021-04-14 19:45:58"},
{"id":"186","module_code":"FAC4865","description":"Advanced Financial Corporate Reporting","category_id":"2","created_by":"1","deleted_at":null,"created_at":"2021-04-14 19:47:25","updated_at":"2021-04-14 19:47:25"},
{"id":"187","module_code":"MAC4861","description":"Advanced Management Accounting","category_id":"4","created_by":"1","deleted_at":null,"created_at":"2021-04-14 19:48:44","updated_at":"2021-04-14 19:48:44"},
{"id":"188","module_code":"MAC4862","description":"Applied Management Accounting","category_id":"4","created_by":"1","deleted_at":null,"created_at":"2021-04-14 19:49:42","updated_at":"2021-04-14 19:49:42"},
{"id":"189","module_code":"MAC4863","description":"Enterprise Strategy","category_id":"4","created_by":"1","deleted_at":null,"created_at":"2021-04-14 19:50:37","updated_at":"2021-04-14 19:50:37"},
{"id":"190","module_code":"MAC4865","description":"Financial Strategy","category_id":"4","created_by":"1","deleted_at":null,"created_at":"2021-04-14 19:51:47","updated_at":"2021-04-14 19:51:47"},
{"id":"191","module_code":"MAC4866","description":"Information Strategy","category_id":"4","created_by":"1","deleted_at":null,"created_at":"2021-04-14 19:52:35","updated_at":"2021-04-14 19:52:35"},
{"id":"192","module_code":"MAC4867","description":"Perfomance Strategy","category_id":"4","created_by":"1","deleted_at":null,"created_at":"2021-04-14 19:53:33","updated_at":"2021-04-14 19:53:33"},
{"id":"193","module_code":"MAC4868","description":"Strategic Case Study","category_id":"4","created_by":"1","deleted_at":null,"created_at":"2021-04-14 19:55:02","updated_at":"2021-04-14 19:55:02"},
{"id":"194","module_code":"MNG4801","description":"Strategic Management","category_id":"9","created_by":"1","deleted_at":null,"created_at":"2021-04-14 19:55:56","updated_at":"2021-04-14 19:55:56"},
{"id":"195","module_code":"AUE4861","description":"Advanced Auditing","category_id":"5","created_by":"1","deleted_at":null,"created_at":"2021-04-14 19:57:00","updated_at":"2021-04-14 19:59:05"},
{"id":"196","module_code":"AUE4862","description":"Applied Auditing","category_id":"5","created_by":"1","deleted_at":null,"created_at":"2021-04-14 19:58:12","updated_at":"2021-04-14 19:58:12"},
{"id":"197","module_code":"TAX4861","description":"Advanced Taxation","category_id":"7","created_by":"1","deleted_at":null,"created_at":"2021-04-14 19:59:58","updated_at":"2021-04-14 19:59:58"},
{"id":"198","module_code":"TAX4862","description":"Applied Taxation","category_id":"7","created_by":"1","deleted_at":null,"created_at":"2021-04-14 20:00:39","updated_at":"2021-04-14 20:00:39"},
{"id":"199","module_code":"RSK4801","description":"Operational Risk Management","category_id":"12","created_by":"1","deleted_at":null,"created_at":"2021-04-14 20:01:58","updated_at":"2021-04-14 20:01:58"},
{"id":"200","module_code":"RSK4802","description":"Governance, Risk And Compliance Management","category_id":"12","created_by":"1","deleted_at":null,"created_at":"2021-04-14 20:02:58","updated_at":"2021-04-14 20:02:58"},
{"id":"201","module_code":"PVL3702","description":"Law Of Contract","category_id":"13","created_by":"1","deleted_at":null,"created_at":"2021-04-17 09:34:26","updated_at":"2021-04-17 09:34:26"},
{"id":"202","module_code":"PVL3703","description":"Law Of Delict","category_id":"13","created_by":"1","deleted_at":null,"created_at":"2021-04-17 09:48:44","updated_at":"2021-04-17 09:48:44"},
{"id":"203","module_code":"MAC3703","description":"Selected Accounting And Financial Management","category_id":"14","created_by":"1","deleted_at":null,"created_at":"2021-04-27 15:58:58","updated_at":"2021-04-27 15:58:58"},
{"id":"204","module_code":"COM1501","description":"Fundamentals Of Communication ","category_id":"9","created_by":"1","deleted_at":null,"created_at":"2021-04-29 11:47:43","updated_at":"2021-04-29 11:47:43"},
{"id":"205","module_code":"ENN1501","description":"English","category_id":"15","created_by":"1","deleted_at":null,"created_at":"2021-05-05 14:26:37","updated_at":"2021-05-05 14:26:37"},
{"id":"206","module_code":"PVL3704","description":"Law Of Enrichment Liablity And Estoppel","category_id":"13","created_by":"1","deleted_at":null,"created_at":"2021-05-06 11:47:01","updated_at":"2021-05-06 11:47:01"},
{"id":"207","module_code":"LEV3701","description":"Law Of Evidence","category_id":"13","created_by":"1","deleted_at":null,"created_at":"2021-05-06 11:48:12","updated_at":"2021-05-06 11:48:12"},
{"id":"208","module_code":"LME3701","description":"Legal Research Methodology","category_id":"13","created_by":"1","deleted_at":null,"created_at":"2021-05-06 11:53:48","updated_at":"2021-05-06 11:53:48"},
{"id":"209","module_code":"MRL3701","description":"Insolvency Law","category_id":"13","created_by":"1","deleted_at":null,"created_at":"2021-05-06 11:55:42","updated_at":"2021-05-06 11:55:42"},
{"id":"210","module_code":"CPR3701","description":"Criminal Procedure","category_id":"13","created_by":"1","deleted_at":null,"created_at":"2021-05-06 11:56:30","updated_at":"2021-05-06 11:56:30"},
{"id":"211","module_code":"EUC1501","description":"End User Computing 1","category_id":"14","created_by":"1","deleted_at":null,"created_at":"2021-05-08 11:11:08","updated_at":"2021-05-08 11:11:08"},
{"id":"212","module_code":"MNM2602","description":"Essentials Of Marketing","category_id":"15","created_by":"1","deleted_at":null,"created_at":"2021-05-10 09:13:36","updated_at":"2021-05-10 09:13:36"},
{"id":"213","module_code":"PYC2605","description":"Hiv\/Aids Care And Counselling","category_id":"14","created_by":"1","deleted_at":null,"created_at":"2021-05-10 09:16:25","updated_at":"2021-05-10 09:16:25"},
{"id":"214","module_code":"PYC3705","description":"Transformative Counselling Encounters","category_id":"14","created_by":"1","deleted_at":null,"created_at":"2021-05-10 09:17:15","updated_at":"2021-05-10 09:17:15"},
{"id":"215","module_code":"DVA2603","description":"Urban Development","category_id":"14","created_by":"1","deleted_at":null,"created_at":"2021-05-10 09:18:07","updated_at":"2021-05-10 09:18:07"},
{"id":"216","module_code":"STA1505","description":"Statistics For Beginners","category_id":"14","created_by":"1","deleted_at":null,"created_at":"2021-05-11 09:10:41","updated_at":"2021-05-11 09:10:41"},
{"id":"217","module_code":"MAT1512","description":"Calculus A","category_id":"10","created_by":"1","deleted_at":null,"created_at":"2021-05-11 16:28:24","updated_at":"2021-05-11 16:28:24"},
{"id":"218","module_code":"MAT1503","description":"Linear Algebra","category_id":"14","created_by":"1","deleted_at":null,"created_at":"2021-05-11 16:29:22","updated_at":"2021-05-11 16:29:22"},
{"id":"219","module_code":"ENN3704","description":"English","category_id":"15","created_by":"1","deleted_at":null,"created_at":"2021-05-11 16:37:03","updated_at":"2021-05-11 16:37:03"},
{"id":"220","module_code":"HRD3702","description":"Management Of Training And Development","category_id":"9","created_by":"1","deleted_at":null,"created_at":"2021-05-11 19:54:54","updated_at":"2021-05-11 19:54:54"},
{"id":"221","module_code":"HRD1501","description":"Introduction To Human Resource Development","category_id":"9","created_by":"1","deleted_at":null,"created_at":"2021-05-11 19:55:50","updated_at":"2021-05-11 19:55:50"},
{"id":"222","module_code":"HRM3703","description":"Information Systems And Technology","category_id":"14","created_by":"1","deleted_at":null,"created_at":"2021-05-11 19:57:02","updated_at":"2021-05-11 19:57:02"},
{"id":"223","module_code":"HRM3704","description":"Contemporary Issues In Human Resource Management","category_id":"14","created_by":"1","deleted_at":null,"created_at":"2021-05-11 19:57:54","updated_at":"2021-05-11 19:57:54"},
{"id":"224","module_code":"IOP3703","description":"Career Psychology","category_id":"14","created_by":"1","deleted_at":null,"created_at":"2021-05-11 19:58:47","updated_at":"2021-05-11 19:58:47"},
{"id":"225","module_code":"IOP3705","description":"Organisational Development And Change","category_id":"14","created_by":"1","deleted_at":null,"created_at":"2021-05-11 19:59:38","updated_at":"2021-05-11 19:59:38"},
{"id":"226","module_code":"LRM2601","description":"Labour Relations Management","category_id":"14","created_by":"1","deleted_at":null,"created_at":"2021-05-11 20:01:06","updated_at":"2021-05-11 20:01:06"},
{"id":"227","module_code":"LRM3702","description":"Labour Relations Management: Micro","category_id":"14","created_by":"1","deleted_at":null,"created_at":"2021-05-11 20:02:09","updated_at":"2021-05-11 20:02:09"},
{"id":"228","module_code":"LLW2602","description":"Collective Labour Law","category_id":"13","created_by":"1","deleted_at":null,"created_at":"2021-05-11 20:10:22","updated_at":"2021-05-11 20:10:22"},
{"id":"229","module_code":"FIN3702","description":"Working Capital Management","category_id":"8","created_by":"1","deleted_at":null,"created_at":"2021-05-12 12:43:30","updated_at":"2021-05-12 12:43:30"},
{"id":"230","module_code":"COM2603","description":"Intercultural Development And Health Communications","category_id":"14","created_by":"1","deleted_at":null,"created_at":"2021-05-14 17:27:56","updated_at":"2021-05-14 17:27:56"},
{"id":"231","module_code":"COM3702","description":" Institutions, Theories And Issues","category_id":"14","created_by":"1","deleted_at":null,"created_at":"2021-05-19 22:11:15","updated_at":"2021-05-19 22:11:15"},
{"id":"232","module_code":"COM3703","description":"Media Content And Media Audiences","category_id":"14","created_by":"1","deleted_at":null,"created_at":"2021-05-19 22:19:25","updated_at":"2021-05-19 22:19:25"},
{"id":"233","module_code":"INF3720","description":"Human Computer Interaction Ii","category_id":"14","created_by":"1","deleted_at":null,"created_at":"2021-05-19 22:33:55","updated_at":"2021-05-19 22:33:55"},
{"id":"234","module_code":"COM3706","description":"Communication Research","category_id":"14","created_by":"1","deleted_at":null,"created_at":"2021-05-21 12:45:28","updated_at":"2021-05-21 12:45:28"},
{"id":"235","module_code":"COM2604","description":"Mass Communication And Media Theory","category_id":"14","created_by":"1","deleted_at":null,"created_at":"2021-05-21 12:50:13","updated_at":"2021-05-21 12:50:13"},
{"id":"236","module_code":"ISR3702","description":"Principles Of Life Insurance","category_id":"12","created_by":"1","deleted_at":null,"created_at":"2021-05-24 10:56:41","updated_at":"2021-05-24 10:56:41"},
{"id":"237","module_code":"ISR3701","description":"Non-Life Insurance","category_id":"12","created_by":"1","deleted_at":null,"created_at":"2021-05-24 10:57:54","updated_at":"2021-05-24 10:57:54"},
{"id":"238","module_code":"RSK2602","description":"Fundamentals Of Operational & Financial Risk","category_id":"12","created_by":"1","deleted_at":null,"created_at":"2021-05-24 11:01:24","updated_at":"2021-05-24 11:01:24"},
{"id":"239","module_code":"RSK4805","description":"Market Risk Management","category_id":"12","created_by":"1","deleted_at":null,"created_at":"2021-05-24 11:02:14","updated_at":"2021-05-24 11:02:14"},
{"id":"240","module_code":"RSK4804","description":"Credit Risk Management","category_id":"12","created_by":"1","deleted_at":null,"created_at":"2021-05-24 11:02:56","updated_at":"2021-05-24 11:09:56"},
{"id":"241","module_code":"RSK4803","description":"Risk Financing","category_id":"12","created_by":"1","deleted_at":null,"created_at":"2021-05-24 11:03:35","updated_at":"2021-05-24 11:09:45"},
{"id":"242","module_code":"SCNTL09","description":"Natural Science 09","category_id":"14","created_by":"1","deleted_at":null,"created_at":"2021-05-25 15:12:45","updated_at":"2021-05-25 15:12:45"},
{"id":"243","module_code":"SCIAL09","description":"Social Science","category_id":"14","created_by":"1","deleted_at":null,"created_at":"2021-05-25 15:14:06","updated_at":"2021-05-25 15:14:06"},
{"id":"244","module_code":"COM3704","description":"New Media Technology","category_id":"14","created_by":"1","deleted_at":null,"created_at":"2021-05-25 23:42:31","updated_at":"2021-05-25 23:42:31"},
{"id":"245","module_code":"ECS3701","description":"Monetary Economics","category_id":"3","created_by":"1","deleted_at":null,"created_at":"2021-05-26 11:34:22","updated_at":"2021-05-26 11:34:22"},
{"id":"246","module_code":"ARM1501","description":"Introducing Archives And Records Management","category_id":"14","created_by":"1","deleted_at":null,"created_at":"2021-05-27 12:58:56","updated_at":"2021-05-27 12:58:56"},
{"id":"247","module_code":"HRM3705","description":"Compensation Management","category_id":"17","created_by":"1","deleted_at":null,"created_at":"2021-06-01 15:27:26","updated_at":"2021-06-01 15:27:26"},
{"id":"248","module_code":"INS1502","description":"Developing Information Skills For Lifelong Learning","category_id":"14","created_by":"1","deleted_at":null,"created_at":"2021-06-07 11:52:38","updated_at":"2021-06-07 11:52:38"},
{"id":"249","module_code":"HRM3706","description":"Performance Management","category_id":"17","created_by":"1","deleted_at":null,"created_at":"2021-06-08 13:07:18","updated_at":"2021-06-08 13:07:18"},
{"id":"250","module_code":"INF1520","description":"Human-Computer Interaction I","category_id":"14","created_by":"1","deleted_at":null,"created_at":"2021-06-12 09:43:37","updated_at":"2021-06-12 09:43:37"},
{"id":"251","module_code":"AIS1501","description":"Information Science System","category_id":"14","created_by":"1","deleted_at":null,"created_at":"2021-06-17 15:03:12","updated_at":"2021-06-17 15:03:12"},
{"id":"252","module_code":"MNO2605","description":"Analysis Of Safety Incidents","category_id":"14","created_by":"1","deleted_at":null,"created_at":"2021-06-21 11:27:35","updated_at":"2021-06-21 11:27:35"},
{"id":"253","module_code":"LJU4804","description":"Private International Law","category_id":"14","created_by":"1","deleted_at":null,"created_at":"2021-07-01 16:27:21","updated_at":"2021-07-01 16:27:21"},
{"id":"254","module_code":"LCR4803","description":"Media Law","category_id":"13","created_by":"1","deleted_at":null,"created_at":"2021-07-02 11:19:50","updated_at":"2021-07-02 11:20:22"},
{"id":"255","module_code":"CMY3701","description":"The Explanation Of Crime","category_id":"13","created_by":"1","deleted_at":null,"created_at":"2021-07-04 14:20:31","updated_at":"2021-07-04 14:20:31"},
{"id":"256","module_code":"CMY3702","description":"Crime Typologies","category_id":"13","created_by":"1","deleted_at":null,"created_at":"2021-07-04 14:22:47","updated_at":"2021-07-04 14:22:47"},
{"id":"257","module_code":"CMY3704","description":"Formal Reaction To Crime","category_id":"13","created_by":"1","deleted_at":null,"created_at":"2021-07-04 14:23:42","updated_at":"2021-07-04 14:23:42"},
{"id":"258","module_code":"CMY3705","description":"Victimology","category_id":"13","created_by":"1","deleted_at":null,"created_at":"2021-07-04 14:27:54","updated_at":"2021-07-04 14:27:54"},
{"id":"259","module_code":"CMY3706","description":"Contemporary Criminological Issues","category_id":"13","created_by":"1","deleted_at":null,"created_at":"2021-07-04 14:28:49","updated_at":"2021-07-04 14:28:49"},
{"id":"260","module_code":"LJU4801","description":"Legal Philosophy","category_id":"13","created_by":"1","deleted_at":null,"created_at":"2021-07-05 10:45:29","updated_at":"2021-07-05 10:45:29"},
{"id":"261","module_code":"MNM3708","description":"Retail Management","category_id":"14","created_by":"1","deleted_at":null,"created_at":"2021-07-06 17:24:57","updated_at":"2021-07-06 17:24:57"},
{"id":"262","module_code":"TLI4801","description":"Technics In Trial And Litigation","category_id":"13","created_by":"1","deleted_at":null,"created_at":"2021-07-07 18:22:24","updated_at":"2021-07-07 18:22:24"},
{"id":"263","module_code":"LML4805","description":"Insurance Law","category_id":"13","created_by":"1","deleted_at":null,"created_at":"2021-07-09 10:16:29","updated_at":"2021-07-09 10:16:29"},
{"id":"264","module_code":"LPL4801","description":"Law Of Sale And Lease","category_id":"13","created_by":"1","deleted_at":null,"created_at":"2021-07-09 10:21:17","updated_at":"2021-07-09 10:21:17"},
{"id":"265","module_code":"LML4806","description":"Company Law","category_id":"13","created_by":"1","deleted_at":null,"created_at":"2021-07-09 10:26:26","updated_at":"2021-07-09 10:45:29"},
{"id":"266","module_code":"LML4807","description":"Banking Law","category_id":"13","created_by":"1","deleted_at":null,"created_at":"2021-07-09 10:29:39","updated_at":"2021-07-09 10:29:39"},
{"id":"267","module_code":"LML4810","description":"Legal Aspects Of Electronic Commerce","category_id":"13","created_by":"1","deleted_at":null,"created_at":"2021-07-09 12:10:14","updated_at":"2021-07-09 12:10:14"},
{"id":"269","module_code":"DVA2601","description":"Projects And Programmes As Instruments Of Development ...","category_id":"13","created_by":"1","deleted_at":null,"created_at":"2021-07-12 11:50:49","updated_at":"2021-07-12 11:50:49"},
{"id":"270","module_code":"DVA2602","description":"Community Development And The Basic Needs Approach ","category_id":"13","created_by":"1","deleted_at":null,"created_at":"2021-07-12 11:52:26","updated_at":"2021-07-12 11:52:26"},
{"id":"271","module_code":"OHS2602","description":"Occupational Health And Safety Law llB","category_id":"14","created_by":"1","deleted_at":null,"created_at":"2021-07-13 18:25:55","updated_at":"2021-07-13 18:30:24"},
{"id":"273","module_code":"OHS301S","description":"Occupational Health And Safety Law lll","category_id":"14","created_by":"1","deleted_at":null,"created_at":"2021-07-13 18:29:46","updated_at":"2021-07-13 18:30:47"},
{"id":"274","module_code":"COM2602","description":"Intergrated Organisational Communication","category_id":"14","created_by":"1","deleted_at":null,"created_at":"2021-07-15 20:14:14","updated_at":"2021-07-15 20:14:14"},
{"id":"275","module_code":"ETP2602","description":"Human Resource Management For Entrepreneurs","category_id":"9","created_by":"1","deleted_at":null,"created_at":"2021-07-16 12:53:46","updated_at":"2021-07-16 12:53:46"},
{"id":"276","module_code":"HRM2605","description":"Hman Resources Management","category_id":"17","created_by":"1","deleted_at":null,"created_at":"2021-07-16 18:55:39","updated_at":"2021-07-16 18:55:39"},
{"id":"277","module_code":"LPL4802","description":"Law Of Damages","category_id":"13","created_by":"1","deleted_at":null,"created_at":"2021-07-17 15:20:50","updated_at":"2021-07-17 15:20:50"},
{"id":"278","module_code":"MNM3705","description":"Markerting Applications","category_id":"14","created_by":"1","deleted_at":null,"created_at":"2021-07-19 11:17:33","updated_at":"2021-07-19 11:17:49"},
{"id":"279","module_code":"HRM2602","description":"Human Resource Management","category_id":"9","created_by":"1","deleted_at":null,"created_at":"2021-07-20 11:54:16","updated_at":"2021-07-20 11:54:16"},
{"id":"280","module_code":"DTM2601","description":"Diploma In Tourism Management","category_id":"14","created_by":"1","deleted_at":null,"created_at":"2021-07-21 12:02:17","updated_at":"2021-07-21 12:02:17"},
{"id":"281","module_code":"MNM1505","description":"Introduction To Consumer Behaviour","category_id":"14","created_by":"1","deleted_at":null,"created_at":"2021-07-24 17:13:52","updated_at":"2021-07-24 17:13:52"},
{"id":"282","module_code":"MNM1502","description":"Customer Service","category_id":"14","created_by":"1","deleted_at":null,"created_at":"2021-07-24 17:19:02","updated_at":"2021-07-24 17:19:02"},
{"id":"283","module_code":"MNM1501","description":"Personal Selling","category_id":"14","created_by":"1","deleted_at":null,"created_at":"2021-07-24 17:29:24","updated_at":"2021-07-24 17:29:24"},
{"id":"284","module_code":"MNM1507","description":"Introduction To Marketing","category_id":"14","created_by":"1","deleted_at":null,"created_at":"2021-07-24 17:32:36","updated_at":"2021-07-24 17:32:36"},
{"id":"285","module_code":"CMY1502","description":"Introduction To Criminology","category_id":"13","created_by":"1","deleted_at":null,"created_at":"2021-08-04 12:21:08","updated_at":"2021-08-04 12:21:08"},
{"id":"286","module_code":"IOP1502","description":"Customer Service In Tourism","category_id":"14","created_by":"1","deleted_at":null,"created_at":"2021-08-06 15:03:11","updated_at":"2021-08-06 15:03:11"},
{"id":"287","module_code":"SOC2604","description":"Sociology Of Families And Social Problems","category_id":"14","created_by":"1","deleted_at":null,"created_at":"2021-08-07 16:15:24","updated_at":"2021-08-07 16:15:24"},
{"id":"288","module_code":"EEA1501","description":"Electrical Engineering I","category_id":"14","created_by":"1","deleted_at":null,"created_at":"2021-08-21 20:33:51","updated_at":"2021-08-21 20:33:51"},
{"id":"289","module_code":"ENGFL08","description":"English Grade 8","category_id":"16","created_by":"1","deleted_at":null,"created_at":"2021-08-23 14:26:24","updated_at":"2021-08-23 14:26:24"},
{"id":"290","module_code":"BTE2601","description":"Becoming A Teacher","category_id":"14","created_by":"1","deleted_at":null,"created_at":"2021-08-25 23:34:02","updated_at":"2021-08-25 23:34:02"},
{"id":"291","module_code":"INF4820","description":"Human-Computer Interaction","category_id":"14","created_by":"1","deleted_at":null,"created_at":"2021-09-02 09:41:06","updated_at":"2021-09-02 09:41:06"},
{"id":"292","module_code":"CLS2601","description":"Constitutional Law","category_id":"14","created_by":"1","deleted_at":null,"created_at":"2021-09-05 15:27:16","updated_at":"2021-09-05 15:27:16"},
{"id":"293","module_code":"MNM3702","description":"Marketing Research","category_id":"14","created_by":"1","deleted_at":null,"created_at":"2021-09-06 08:59:51","updated_at":"2021-09-06 08:59:51"},
{"id":"294","module_code":"INF3708","description":"Software Project Management","category_id":"14","created_by":"1","deleted_at":null,"created_at":"2021-09-13 16:10:13","updated_at":"2021-09-13 16:10:13"},
{"id":"295","module_code":"MNG1501","description":"Business Manangement","category_id":"9","created_by":"1","deleted_at":null,"created_at":"2021-09-15 16:05:01","updated_at":"2021-09-15 16:05:01"},
{"id":"296","module_code":"CLA2602","description":"Commercial Law Iib","category_id":"13","created_by":"1","deleted_at":null,"created_at":"2021-09-28 13:04:34","updated_at":"2021-09-28 13:04:34"},
{"id":"297","module_code":"INF2603","description":"Databases I","category_id":"2","created_by":"1","deleted_at":null,"created_at":"2021-09-29 18:57:53","updated_at":"2021-09-29 18:57:53"},
{"id":"298","module_code":"MNB3701","description":"Global Business Management Ia","category_id":"9","created_by":"1","deleted_at":null,"created_at":"2021-09-29 19:00:12","updated_at":"2021-09-29 19:00:12"},
{"id":"299","module_code":"MNG1602","description":"Management Ib","category_id":"9","created_by":"1","deleted_at":null,"created_at":"2021-09-29 21:23:07","updated_at":"2021-09-29 21:23:07"},
{"id":"300","module_code":"MNM2605","description":"Consumer Behaviour","category_id":"9","created_by":"1","deleted_at":null,"created_at":"2021-10-13 19:17:05","updated_at":"2021-10-13 19:17:05"},
{"id":"301","module_code":"ACCNT08","description":"Accounting","category_id":"16","created_by":"1","deleted_at":null,"created_at":"2021-10-25 15:00:25","updated_at":"2021-10-25 15:00:25"},
{"id":"302","module_code":"ARM1502","description":"Information Science","category_id":"14","created_by":"1","deleted_at":null,"created_at":"2021-11-08 07:28:57","updated_at":"2021-11-08 07:28:57"},
{"id":"303","module_code":"HRM2604","description":"Performance Management Practices","category_id":"14","created_by":"1","deleted_at":null,"created_at":"2021-11-16 09:22:51","updated_at":"2021-11-16 09:22:51"},
{"id":"304","module_code":"ETP3702","description":"Entreprenueurship","category_id":"9","created_by":"1","deleted_at":null,"created_at":"2021-11-19 13:06:52","updated_at":"2021-11-19 13:06:52"},
{"id":"305","module_code":"IOP2603","description":"Ergonomics","category_id":"14","created_by":"1","deleted_at":null,"created_at":"2022-01-08 11:42:23","updated_at":"2022-01-08 11:42:23"},
{"id":"306","module_code":"IOP2604","description":"Psychological Adjustment In The Work Context","category_id":"14","created_by":"1","deleted_at":null,"created_at":"2022-01-08 11:43:54","updated_at":"2022-01-08 11:43:54"},
{"id":"307","module_code":"IOP2605","description":"Human Capacity Development","category_id":"14","created_by":"1","deleted_at":null,"created_at":"2022-01-08 11:44:27","updated_at":"2022-01-08 11:44:27"},
{"id":"308","module_code":"IOP2606","description":"Individual Differences And Work Performance","category_id":"14","created_by":"1","deleted_at":null,"created_at":"2022-01-08 11:45:01","updated_at":"2022-01-08 11:45:01"},
{"id":"309","module_code":"IOP2607","description":"Workgroup Dynamics And Diversity","category_id":"14","created_by":"1","deleted_at":null,"created_at":"2022-01-08 11:45:36","updated_at":"2022-01-08 11:45:36"},
{"id":"310","module_code":"ADB2601","description":"Administrative Management Iia","category_id":"9","created_by":"1","deleted_at":null,"created_at":"2022-01-11 11:52:42","updated_at":"2022-01-11 11:52:42"},
{"id":"311","module_code":"ADB2602","description":"Administrative Management Iib","category_id":"9","created_by":"1","deleted_at":null,"created_at":"2022-01-11 11:55:00","updated_at":"2022-01-11 11:55:00"},
{"id":"312","module_code":"BSM2602","description":"Business Management Iib","category_id":"9","created_by":"1","deleted_at":null,"created_at":"2022-01-11 11:56:29","updated_at":"2022-01-11 11:56:29"},
{"id":"313","module_code":"PUB2601","description":"Foundation Of Public Relations","category_id":"9","created_by":"1","deleted_at":null,"created_at":"2022-01-11 14:09:37","updated_at":"2022-01-11 14:09:37"},
{"id":"314","module_code":"PUB2603","description":"Creation Of Wealth","category_id":"9","created_by":"1","deleted_at":null,"created_at":"2022-01-11 14:10:30","updated_at":"2022-01-11 14:10:30"},
{"id":"315","module_code":"PUB2605","description":"Culture And Education","category_id":"9","created_by":"1","deleted_at":null,"created_at":"2022-01-11 14:11:21","updated_at":"2022-01-11 14:11:21"},
{"id":"316","module_code":"ECS2606","description":"Enviromental Economics","category_id":"3","created_by":"1","deleted_at":null,"created_at":"2022-01-14 09:20:02","updated_at":"2022-01-14 09:20:02"},
{"id":"317","module_code":"FIN4801","description":"Advanced Financial Management","category_id":"2","created_by":"1","deleted_at":null,"created_at":"2022-01-14 12:47:31","updated_at":"2022-01-14 12:47:31"},
{"id":"318","module_code":"FIN4802","description":"International Financial Manangement","category_id":"2","created_by":"1","deleted_at":null,"created_at":"2022-01-14 12:49:01","updated_at":"2022-01-14 12:49:01"},
{"id":"319","module_code":"PUB1601","description":"The Structuring And Functioning Of Public Services","category_id":"14","created_by":"1","deleted_at":null,"created_at":"2022-01-18 10:53:20","updated_at":"2022-01-18 10:53:20"},
{"id":"320","module_code":"INV4801","description":"Portfolio Management","category_id":"8","created_by":"1","deleted_at":null,"created_at":"2022-01-18 11:12:48","updated_at":"2022-01-18 11:12:48"},
{"id":"321","module_code":"INV3701","description":"Equity Asset Valuation","category_id":"8","created_by":"1","deleted_at":null,"created_at":"2022-01-18 12:00:28","updated_at":"2022-01-18 12:00:28"},
{"id":"322","module_code":"CLA2601","description":"Commercial Law Iia","category_id":"13","created_by":"1","deleted_at":null,"created_at":"2022-01-19 07:32:20","updated_at":"2022-01-19 07:32:20"},
{"id":"323","module_code":"ECS2604","description":"Labour Economics","category_id":"3","created_by":"1","deleted_at":null,"created_at":"2022-01-19 13:25:47","updated_at":"2022-01-19 13:25:47"},
{"id":"324","module_code":"HRM2603","description":"Human Resources Management","category_id":"17","created_by":"1","deleted_at":null,"created_at":"2022-01-19 13:41:05","updated_at":"2022-01-19 13:41:05"},
{"id":"325","module_code":"LCP4801","description":"International Law","category_id":"13","created_by":"1","deleted_at":null,"created_at":"2022-01-20 11:40:54","updated_at":"2022-01-20 11:40:54"},
{"id":"326","module_code":"PHYSICS10","description":"Physics","category_id":"14","created_by":"1","deleted_at":null,"created_at":"2022-01-23 11:34:34","updated_at":"2022-01-23 11:34:34"},
{"id":"327","module_code":"BIOLGY10","description":"Biology","category_id":"14","created_by":"1","deleted_at":null,"created_at":"2022-01-23 11:35:16","updated_at":"2022-01-23 11:35:16"},
{"id":"328","module_code":"PUB4870","description":"Public Financial Accountability","category_id":"14","created_by":"1","deleted_at":null,"created_at":"2022-01-30 07:45:08","updated_at":"2022-01-30 07:45:08"},
{"id":"329","module_code":"ENG2602","description":"Genres In Literature And Language ","category_id":"15","created_by":"1","deleted_at":null,"created_at":"2022-01-30 17:53:37","updated_at":"2022-01-30 17:53:37"},
{"id":"330","module_code":"BAN3702","description":"Treasury Management","category_id":"14","created_by":"1","deleted_at":null,"created_at":"2022-01-31 06:48:34","updated_at":"2022-01-31 06:48:34"},
{"id":"331","module_code":"MNB3702","description":"Global Management Business","category_id":"14","created_by":"1","deleted_at":null,"created_at":"2022-01-31 11:15:20","updated_at":"2022-01-31 11:15:20"},
{"id":"332","module_code":"GGH3708","description":"Environmental Awareness And Responsibility","category_id":"14","created_by":"1","deleted_at":null,"created_at":"2022-02-01 11:20:43","updated_at":"2022-02-01 11:20:43"},
{"id":"333","module_code":"ECS3702","description":"International Trade","category_id":"3","created_by":"1","deleted_at":null,"created_at":"2022-02-01 11:31:38","updated_at":"2022-02-01 11:31:38"},
{"id":"334","module_code":"ECS3703","description":"International Finance","category_id":"3","created_by":"1","deleted_at":null,"created_at":"2022-02-01 11:32:14","updated_at":"2022-02-01 11:32:14"},
{"id":"335","module_code":"ECS3704","description":"Public Economics","category_id":"3","created_by":"1","deleted_at":null,"created_at":"2022-02-01 11:32:50","updated_at":"2022-02-01 11:32:50"},
{"id":"336","module_code":"PYC2601","description":"Personality Theories","category_id":"14","created_by":"1","deleted_at":null,"created_at":"2022-02-01 12:46:51","updated_at":"2022-02-01 12:46:51"},
{"id":"337","module_code":"HRD2601","description":"Education ,Training And Development Practices","category_id":"14","created_by":"1","deleted_at":null,"created_at":"2022-02-01 13:15:48","updated_at":"2022-02-01 13:15:48"},
{"id":"338","module_code":"IOP3708","description":"Investor Psychology","category_id":"14","created_by":"1","deleted_at":null,"created_at":"2022-02-02 10:25:04","updated_at":"2022-02-02 10:25:04"},
{"id":"339","module_code":"HRD2602","description":"Training And Development Practices","category_id":"14","created_by":"1","deleted_at":null,"created_at":"2022-02-03 19:18:22","updated_at":"2022-02-03 19:18:22"},
{"id":"340","module_code":"MNM3709","description":"Strategic Marketing","category_id":"14","created_by":"1","deleted_at":null,"created_at":"2022-02-04 09:59:58","updated_at":"2022-02-04 09:59:58"},
{"id":"341","module_code":"DSC2604","description":"Financial Modelling","category_id":"14","created_by":"1","deleted_at":null,"created_at":"2022-02-05 06:42:16","updated_at":"2022-02-05 06:42:16"},
{"id":"342","module_code":"EEN3700","description":"Environmental Engineering","category_id":"14","created_by":"1","deleted_at":null,"created_at":"2022-02-05 18:23:22","updated_at":"2022-02-05 18:23:22"},
{"id":"343","module_code":"FIM3700","description":"Fim3700","category_id":"14","created_by":"1","deleted_at":null,"created_at":"2022-02-05 18:27:15","updated_at":"2022-02-05 18:27:15"},
{"id":"344","module_code":"CMT3700","description":"Civil Engineering","category_id":"14","created_by":"1","deleted_at":null,"created_at":"2022-02-05 18:29:09","updated_at":"2022-02-05 18:29:09"},
{"id":"345","module_code":" APM3700","description":"Differential Equations","category_id":"14","created_by":"1","deleted_at":null,"created_at":"2022-02-05 18:30:52","updated_at":"2022-02-05 18:30:52"},
{"id":"346","module_code":"MAT3700","description":"Mathematics Iii","category_id":"10","created_by":"1","deleted_at":null,"created_at":"2022-02-05 18:33:44","updated_at":"2022-02-05 18:33:44"},
{"id":"347","module_code":"CMT3701","description":"Cmt3701","category_id":"14","created_by":"1","deleted_at":null,"created_at":"2022-02-05 18:39:05","updated_at":"2022-02-05 18:39:05"},
{"id":"348","module_code":"SAN3701","description":"San3701","category_id":"14","created_by":"1","deleted_at":null,"created_at":"2022-02-05 18:46:26","updated_at":"2022-02-05 18:46:26"},
{"id":"349","module_code":"RCD3700","description":"Solution To Tutorial On Slab Design","category_id":"14","created_by":"1","deleted_at":null,"created_at":"2022-02-05 18:47:31","updated_at":"2022-02-05 18:47:31"},
{"id":"350","module_code":"APM3700","description":"Differential Equations","category_id":"14","created_by":"1","deleted_at":null,"created_at":"2022-02-05 19:06:20","updated_at":"2022-02-05 19:06:20"},
{"id":"351","module_code":"LCP4804","description":"Advanced Indigenous Law","category_id":"13","created_by":"1","deleted_at":null,"created_at":"2022-02-07 21:59:50","updated_at":"2022-02-07 21:59:50"},
{"id":"352","module_code":"LJU4802","description":"Professional Ethics","category_id":"13","created_by":"1","deleted_at":null,"created_at":"2022-02-07 22:00:34","updated_at":"2022-02-07 22:00:34"},
{"id":"353","module_code":"MAT1501","description":"Fundamental Mathematics","category_id":"10","created_by":"1","deleted_at":null,"created_at":"2022-02-08 12:00:58","updated_at":"2022-02-08 12:00:58"},
{"id":"354","module_code":"PHY1501","description":"Elementary Mechanics","category_id":"10","created_by":"1","deleted_at":null,"created_at":"2022-02-08 12:02:30","updated_at":"2022-02-08 12:02:30"},
{"id":"355","module_code":"MNO3701","description":"Production And Operations Management","category_id":"14","created_by":"1","deleted_at":null,"created_at":"2022-02-09 12:42:31","updated_at":"2022-02-09 12:42:31"},
{"id":"356","module_code":"MNO3703","description":"Total Quality Management","category_id":"14","created_by":"1","deleted_at":null,"created_at":"2022-02-09 12:46:15","updated_at":"2022-02-09 12:46:15"},
{"id":"357","module_code":"MNP2601","description":"Purchasing Management","category_id":"14","created_by":"1","deleted_at":null,"created_at":"2022-02-09 12:47:11","updated_at":"2022-02-09 12:47:11"},
{"id":"358","module_code":"MNP2602","description":"Supply Chain Management","category_id":"14","created_by":"1","deleted_at":null,"created_at":"2022-02-09 12:47:54","updated_at":"2022-02-09 12:47:54"},
{"id":"359","module_code":"TRL2604","description":"Integrated Logistics","category_id":"14","created_by":"1","deleted_at":null,"created_at":"2022-02-09 12:48:57","updated_at":"2022-02-09 12:48:57"},
{"id":"360","module_code":"IOP3701","description":"Industrial Pyschology","category_id":"14","created_by":"1","deleted_at":null,"created_at":"2022-02-10 10:33:07","updated_at":"2022-02-10 10:33:07"},
{"id":"361","module_code":"IOP3702","description":"Personnel Pyschology","category_id":"14","created_by":"1","deleted_at":null,"created_at":"2022-02-10 10:33:55","updated_at":"2022-02-10 10:33:55"},
{"id":"362","module_code":"IOP3704","description":"Employment Relations","category_id":"14","created_by":"1","deleted_at":null,"created_at":"2022-02-10 10:37:19","updated_at":"2022-02-10 10:37:19"},
{"id":"363","module_code":"IOP3706","description":"Personnel Pyschology","category_id":"14","created_by":"1","deleted_at":null,"created_at":"2022-02-10 10:39:32","updated_at":"2022-02-10 10:39:32"},
{"id":"364","module_code":"IOP3707","description":"Psychology Of Leadership","category_id":"14","created_by":"1","deleted_at":null,"created_at":"2022-02-10 10:40:42","updated_at":"2022-02-10 10:40:42"},
{"id":"365","module_code":"LRM1501","description":"Labour Relations Management","category_id":"13","created_by":"1","deleted_at":null,"created_at":"2022-02-10 12:11:52","updated_at":"2022-02-10 12:11:52"},
{"id":"366","module_code":"PYC1502","description":"Psychology In Society","category_id":"14","created_by":"1","deleted_at":null,"created_at":"2022-02-13 14:40:45","updated_at":"2022-02-13 14:40:45"},
{"id":"367","module_code":"PHYSICS12","description":"Physical Sciences","category_id":"14","created_by":"1","deleted_at":null,"created_at":"2022-02-13 14:59:01","updated_at":"2022-02-13 14:59:01"},
{"id":"368","module_code":"ECS2603","description":"South African Economics Indicators","category_id":"3","created_by":"1","deleted_at":null,"created_at":"2022-02-14 04:21:26","updated_at":"2022-02-14 04:21:26"},
{"id":"369","module_code":"DPR2606","description":"Writing For Public Relations Ii","category_id":"14","created_by":"1","deleted_at":null,"created_at":"2022-02-14 11:03:38","updated_at":"2022-02-14 11:03:38"},
{"id":"370","module_code":"DPR2612","description":"Media Liaison","category_id":"14","created_by":"1","deleted_at":null,"created_at":"2022-02-14 11:04:15","updated_at":"2022-02-14 11:04:15"},
{"id":"371","module_code":"MAT1581","description":"Mathematics I (Engineering)","category_id":"10","created_by":"1","deleted_at":null,"created_at":"2022-02-16 16:30:33","updated_at":"2022-02-16 16:30:33"},
{"id":"372","module_code":"CMY2602","description":"Principles Of Crime Prevention, Reduction And Control","category_id":"13","created_by":"1","deleted_at":null,"created_at":"2022-02-24 13:35:47","updated_at":"2022-02-24 13:35:47"},
{"id":"373","module_code":"MNM2606","description":"Advertising And Sales Promotion","category_id":"14","created_by":"1","deleted_at":null,"created_at":"2022-02-25 04:38:21","updated_at":"2022-02-25 04:38:21"},
{"id":"374","module_code":"CLA1502","description":"Commercial Lawib","category_id":"13","created_by":"1","deleted_at":null,"created_at":"2022-03-01 14:37:11","updated_at":"2022-03-01 14:37:11"},
{"id":"375","module_code":"DPR3704","description":"Production - Digital","category_id":"14","created_by":"1","deleted_at":null,"created_at":"2022-03-02 11:34:18","updated_at":"2022-03-02 11:34:18"},
{"id":"376","module_code":"UPD3700","description":"Urban Planning And Design","category_id":"14","created_by":"1","deleted_at":null,"created_at":"2022-03-02 12:04:17","updated_at":"2022-03-02 12:04:17"},
{"id":"377","module_code":"DVA3701","description":"Development Theories","category_id":"14","created_by":"1","deleted_at":null,"created_at":"2022-03-09 15:39:11","updated_at":"2022-03-09 15:39:11"},
{"id":"378","module_code":"DTM1501","description":"Travel Operations","category_id":"14","created_by":"1","deleted_at":null,"created_at":"2022-03-10 09:28:16","updated_at":"2022-03-10 09:28:16"},
{"id":"379","module_code":"DTM2604","description":"Tourism Development Iib","category_id":"14","created_by":"1","deleted_at":null,"created_at":"2022-03-14 07:39:44","updated_at":"2022-03-14 07:39:44"},
{"id":"380","module_code":"TRT1502","description":"Primary Factors Of Tourism","category_id":"14","created_by":"1","deleted_at":null,"created_at":"2022-03-14 07:40:50","updated_at":"2022-03-14 07:40:50"},
{"id":"381","module_code":"MNN3701","description":"CORPORATE CITIZENSHIP","category_id":"14","created_by":"1","deleted_at":null,"created_at":"2022-03-14 10:44:30","updated_at":"2022-03-14 13:39:06"},
{"id":"382","module_code":"APY3704","description":"Themes In Anthropology: Tourism And Pilgrimage","category_id":"14","created_by":"1","deleted_at":null,"created_at":"2022-03-14 13:05:40","updated_at":"2022-03-14 13:05:40"},
{"id":"383","module_code":"DPR3702","description":"Public Relations In Industry","category_id":"14","created_by":"1","deleted_at":null,"created_at":"2022-03-17 08:04:05","updated_at":"2022-03-17 08:04:05"},
{"id":"384","module_code":"PLC2602","description":"Politics And Public Policy","category_id":"14","created_by":"1","deleted_at":null,"created_at":"2022-03-17 08:10:18","updated_at":"2022-03-17 08:10:18"},
{"id":"385","module_code":"MBA4700","description":"Strategic Management","category_id":"14","created_by":"1","deleted_at":null,"created_at":"2022-03-17 09:37:50","updated_at":"2022-03-17 09:37:50"},
{"id":"386","module_code":"CLAS001","description":"Class 001","category_id":"14","created_by":"1","deleted_at":null,"created_at":"2022-03-30 17:11:42","updated_at":"2022-03-30 17:11:42"},
{"id":"387","module_code":"ADB1501","description":"Administrative Management Ia","category_id":"14","created_by":"1","deleted_at":null,"created_at":"2022-04-05 12:56:09","updated_at":"2022-04-05 12:56:09"},
{"id":"388","module_code":"BPT1501","description":"Being A Professional Teacher","category_id":"14","created_by":"1","deleted_at":null,"created_at":"2022-04-09 15:58:14","updated_at":"2022-04-09 15:58:14"},
{"id":"389","module_code":"CVE1501","description":"Civil Engineering Management 1","category_id":"14","created_by":"1","deleted_at":null,"created_at":"2022-04-12 14:49:40","updated_at":"2022-04-12 14:49:40"},
{"id":"390","module_code":"PRM3701","description":"Introduction To Project Management","category_id":"14","created_by":"1","deleted_at":null,"created_at":"2022-04-22 15:36:48","updated_at":"2022-04-22 15:36:48"},
{"id":"391","module_code":"IAD2601","description":"Information Administration ii (Theory)","category_id":"14","created_by":"1","deleted_at":null,"created_at":"2022-04-29 11:50:50","updated_at":"2022-04-29 11:50:50"},
{"id":"392","module_code":"CML1501","description":"Communication Law","category_id":"13","created_by":"1","deleted_at":null,"created_at":"2022-05-03 08:45:33","updated_at":"2022-05-03 08:45:33"},
{"id":"393","module_code":"MNO1501","description":"Safety Management ","category_id":"9","created_by":"1","deleted_at":null,"created_at":"2022-05-16 10:30:14","updated_at":"2022-05-16 10:30:14"},
{"id":"394","module_code":"MNP3702","description":"Supply Chain Alignment","category_id":"14","created_by":"1","deleted_at":null,"created_at":"2022-05-18 09:37:04","updated_at":"2022-05-18 09:37:04"},
{"id":"395","module_code":"DVA3706","description":"Rural Development","category_id":"14","created_by":"1","deleted_at":null,"created_at":"2022-05-23 11:46:33","updated_at":"2022-05-23 11:46:33"},
{"id":"396","module_code":"HRM3701","description":"Human Resource Management","category_id":"14","created_by":"1","deleted_at":null,"created_at":"2022-05-25 12:48:17","updated_at":"2022-05-25 12:48:17"},
{"id":"397","module_code":"INV3702","description":"Investment Fixed Income Analysis","category_id":"14","created_by":"1","deleted_at":null,"created_at":"2022-07-08 10:44:07","updated_at":"2022-07-08 10:44:07"},
{"id":"398","module_code":"HRD3601","description":"Management Of Human Res Develop","category_id":"14","created_by":"1","deleted_at":null,"created_at":"2022-07-12 12:09:13","updated_at":"2022-07-12 12:09:13"},
{"id":"399","module_code":"MNO1502","description":"Safety Management","category_id":"14","created_by":"1","deleted_at":null,"created_at":"2022-07-12 15:45:35","updated_at":"2022-07-12 15:45:35"},
{"id":"400","module_code":"PYC2614","description":"Community Psychology Building Foundations","category_id":"14","created_by":"1","deleted_at":null,"created_at":"2022-07-22 11:33:53","updated_at":"2022-07-22 11:33:53"},
{"id":"401","module_code":"CMY2603","description":"Child And Youth Misbehaviour","category_id":"14","created_by":"1","deleted_at":null,"created_at":"2022-07-22 11:35:21","updated_at":"2022-07-22 11:35:21"},
{"id":"402","module_code":"IOP2608","description":"Forensic Industrial Psychology","category_id":"14","created_by":"1","deleted_at":null,"created_at":"2022-07-22 11:36:41","updated_at":"2022-07-22 11:36:41"},
{"id":"403","module_code":"AIS2601","description":"Basic Descriptive Classification And Cataloguing","category_id":"14","created_by":"1","deleted_at":null,"created_at":"2022-07-23 07:10:37","updated_at":"2022-07-23 07:10:37"},
{"id":"404","module_code":"MNP3701","description":"Strategic Sourcing","category_id":"14","created_by":"1","deleted_at":null,"created_at":"2022-07-27 10:03:48","updated_at":"2022-07-27 10:03:48"},
{"id":"405","module_code":"MNP3703","description":"Supplier Relationship Management","category_id":"14","created_by":"1","deleted_at":null,"created_at":"2022-07-27 10:05:54","updated_at":"2022-07-27 10:05:54"},
{"id":"406","module_code":"MAT2691","description":"Mathematics Ii (Engineering)","category_id":"10","created_by":"1","deleted_at":null,"created_at":"2022-07-30 16:59:05","updated_at":"2022-07-30 16:59:05"},
{"id":"407","module_code":"LRM3601","description":"Labour Relations Practices","category_id":"17","created_by":"1","deleted_at":null,"created_at":"2022-07-30 20:18:58","updated_at":"2022-07-30 20:18:58"},
{"id":"408","module_code":"LRM3701","description":"Applied Labour Relations Management Competencies","category_id":"17","created_by":"1","deleted_at":null,"created_at":"2022-07-30 20:23:07","updated_at":"2022-07-30 20:23:07"}
]

